…
Create a new data frame gapminder HIV which joins the gapminder\_sel and numHIV\_sel: - I use head(gapminderHIV) to ensure that the join worked. - I notice that some data is missing, but that's okay, we can remove the NAs later on.

``` r
gapminderHIV = left_join(gapminder_sel, numHIV_sel, by= "country") # join columns, join by comparing country and geo columns. 
```

    ## Warning: Column `country` joining factor and character vector, coercing
    ## into character vector

``` r
gapminderHIV
```

    ## # A tibble: 142 x 6
    ##    country           pop gdpPercap continent geo         `2007`
    ##    <chr>           <int>     <dbl> <fctr>    <chr>        <int>
    ##  1 Afghanistan  31889923       975 Asia      Afghanistan   3600
    ##  2 Albania       3600523      5937 Europe    <NA>            NA
    ##  3 Algeria      33333216      6223 Africa    <NA>            NA
    ##  4 Angola       12420476      4797 Africa    Angola      190000
    ##  5 Argentina    40301927     12779 Americas  Argentina    83000
    ##  6 Australia    20434176     34435 Oceania   Australia    18000
    ##  7 Austria       8199783     36126 Europe    Austria      12000
    ##  8 Bahrain        708573     29796 Asia      <NA>            NA
    ##  9 Bangladesh  150448339      1391 Asia      Bangladesh    4800
    ## 10 Belgium      10392226     33693 Europe    Belgium      16000
    ## # ... with 132 more rows
…
